<?xml version="1.0" encoding="UTF-8" standalone="no"?>
<svg
   width="90.606743mm"
   height="105.4216mm"
   viewBox="0 0 90.606743 105.4216"
   version="1.1"
   id="svg3165"
   inkscape:version="1.1-alpha (17bc9184, 2021-03-28)"
   sodipodi:docname="DM_logo.svg"
   xmlns:inkscape="http://www.inkscape.org/namespaces/inkscape"
   xmlns:sodipodi="http://sodipodi.sourceforge.net/DTD/sodipodi-0.dtd"
   xmlns="http://www.w3.org/2000/svg"
   xmlns:svg="http://www.w3.org/2000/svg"
   xmlns:rdf="http://www.w3.org/1999/02/22-rdf-syntax-ns#"
   xmlns:cc="http://creativecommons.org/ns#"
   xmlns:dc="http://purl.org/dc/elements/1.1/">
  <defs
     id="defs3159">
    <style
       id="style36740">.cls-1{fill:#414344;}.cls-2{fill:#6da39f;}.cls-3,.cls-4,.cls-5{fill:none;stroke:#6da39f;}.cls-3,.cls-4{stroke-linecap:round;stroke-linejoin:round;stroke-width:3.02px;}.cls-4{stroke-dasharray:0 5.87;}.cls-5{stroke-miterlimit:10;stroke-width:2.01px;}.cls-6{fill:#305f8a;}.cls-7{fill:#bacc34;}.cls-8{fill:#d96135;}</style>
  </defs>
  <sodipodi:namedview
     id="base"
     pagecolor="#ffffff"
     bordercolor="#666666"
     borderopacity="1.0"
     inkscape:pageopacity="0.0"
     inkscape:pageshadow="2"
     inkscape:zoom="0.79289959"
     inkscape:cx="199.89921"
     inkscape:cy="278.09322"
     inkscape:document-units="mm"
     inkscape:current-layer="layer1"
     showgrid="false"
     inkscape:window-width="1312"
     inkscape:window-height="847"
     inkscape:window-x="0"
     inkscape:window-y="25"
     inkscape:window-maximized="0"
     objecttolerance="10.0"
     gridtolerance="10.0"
     guidetolerance="10.0"
     inkscape:pagecheckerboard="0" />
  <metadata
     id="metadata3162">
    <rdf:RDF>
      <cc:Work
         rdf:about="">
        <dc:format>image/svg+xml</dc:format>
        <dc:type
           rdf:resource="http://purl.org/dc/dcmitype/StillImage" />
        <dc:title />
      </cc:Work>
    </rdf:RDF>
  </metadata>
  <g
     inkscape:label="Layer 1"
     inkscape:groupmode="layer"
     id="layer1"
     transform="translate(-187.82024,-170.86177)">
    <path
       id="path27969"
       d="M 312.25477,308.36203 311.19644,546.7537"
       inkscape:connector-curvature="0"
       style="fill:#000000;fill-opacity:0;fill-rule:evenodd;stroke:none;stroke-width:0.264583;stroke-linecap:square;stroke-miterlimit:10" />
    <g
       aria-label="DM"
       id="text36992"
       style="font-size:16.9333px;line-height:125%;-inkscape-font-specification:'sans-serif, Normal';letter-spacing:0px;word-spacing:0px;display:inline;stroke-width:0.529167px">
      <path
         d="m 221.44126,267.32596 v -11.85331 h 4.82599 q 1.72719,0 3.01412,0.762 1.30387,0.74506 2.01507,2.08279 0.72813,1.33773 0.72813,3.08186 0,1.76107 -0.72813,3.0988 -0.7112,1.32079 -1.99813,2.08279 -1.28693,0.74507 -3.03106,0.74507 z m 4.74132,-9.63505 h -2.30293 v 7.41679 h 2.30293 q 1.5748,0 2.47226,-0.99907 0.89747,-0.99906 0.89747,-2.70933 0,-1.69333 -0.9144,-2.69239 -0.89747,-1.016 -2.45533,-1.016 z"
         style="font-weight:600;font-family:Lexend;-inkscape-font-specification:'Lexend, Semi-Bold';fill:#404243"
         id="path908" />
      <path
         d="m 234.33967,267.32596 v -11.85331 h 2.25213 l 3.58986,5.85892 3.65759,-5.85892 h 2.15053 v 11.85331 h -2.3876 v -4.18253 q 0,-1.03293 0.0339,-1.91346 0.0339,-0.89746 0.1016,-1.7272 l -3.04799,4.72439 h -1.1176 l -2.98026,-4.69052 q 0.0847,0.77893 0.1016,1.65946 0.0339,0.8636 0.0339,1.94733 v 4.18253 z"
         style="font-weight:600;font-family:Lexend;-inkscape-font-specification:'Lexend, Semi-Bold';fill:#404243"
         id="path910" />
    </g>
    <g
       id="g4546">
      <g
         id="g42313">
        <rect
           y="196.29158"
           x="198.72247"
           height="14.142124"
           width="14.142124"
           id="rect36928"
           style="opacity:1;fill:none;fill-opacity:1;stroke:#404243;stroke-width:1;stroke-linecap:square;stroke-linejoin:round;stroke-miterlimit:4;stroke-dasharray:none;stroke-dashoffset:0;stroke-opacity:1" />
        <rect
           style="opacity:1;fill:none;fill-opacity:1;stroke:#404243;stroke-width:1;stroke-linecap:square;stroke-linejoin:round;stroke-miterlimit:4;stroke-dasharray:none;stroke-dashoffset:0;stroke-opacity:1"
           id="rect36930"
           width="14.142124"
           height="14.142124"
           x="212.86459"
           y="196.29158" />
        <rect
           y="182.14943"
           x="198.72247"
           height="14.142124"
           width="14.142124"
           id="rect36898"
           style="opacity:1;fill:none;fill-opacity:1;stroke:#404243;stroke-width:1;stroke-linecap:square;stroke-linejoin:round;stroke-miterlimit:4;stroke-dasharray:none;stroke-dashoffset:0;stroke-opacity:1" />
        <rect
           style="opacity:1;fill:none;fill-opacity:1;stroke:#404243;stroke-width:1;stroke-linecap:square;stroke-linejoin:round;stroke-miterlimit:4;stroke-dasharray:none;stroke-dashoffset:0;stroke-opacity:1"
           id="rect36900"
           width="14.142124"
           height="14.142124"
           x="212.86459"
           y="182.14943" />
      </g>
      <g
         id="g42227">
        <rect
           style="opacity:1;fill:#bacc33;fill-opacity:1;stroke:#404243;stroke-width:1;stroke-linecap:square;stroke-linejoin:round;stroke-miterlimit:4;stroke-dasharray:none;stroke-dashoffset:0;stroke-opacity:1"
           id="rect36974"
           width="14.142124"
           height="14.142124"
           x="236.82246"
           y="196.29158" />
        <rect
           y="196.29158"
           x="250.96458"
           height="14.142124"
           width="14.142124"
           id="rect36976"
           style="opacity:1;fill:#bc3b3a;fill-opacity:1;stroke:#404243;stroke-width:1;stroke-linecap:square;stroke-linejoin:round;stroke-miterlimit:4;stroke-dasharray:none;stroke-dashoffset:0;stroke-opacity:1" />
        <rect
           style="opacity:1;fill:#6da39f;fill-opacity:1;stroke:#404243;stroke-width:1;stroke-linecap:square;stroke-linejoin:round;stroke-miterlimit:4;stroke-dasharray:none;stroke-dashoffset:0;stroke-opacity:1"
           id="rect36944"
           width="14.142124"
           height="14.142124"
           x="236.82246"
           y="182.14943" />
        <rect
           y="182.14943"
           x="250.96458"
           height="14.142124"
           width="14.142124"
           id="rect36946"
           style="opacity:1;fill:#d96135;fill-opacity:1;stroke:#404243;stroke-width:1;stroke-linecap:square;stroke-linejoin:round;stroke-miterlimit:4;stroke-dasharray:none;stroke-dashoffset:0;stroke-opacity:1" />
      </g>
      <g
         transform="translate(144.32407,106.19569)"
         id="g4236">
        <rect
           style="opacity:1;fill:none;fill-opacity:1;stroke:#404243;stroke-width:1;stroke-linecap:square;stroke-linejoin:round;stroke-miterlimit:4;stroke-dasharray:none;stroke-dashoffset:0;stroke-opacity:1"
           id="rect4118"
           width="14.142124"
           height="14.142124"
           x="92.889114"
           y="113.35768" />
        <rect
           y="113.35768"
           x="107.03125"
           height="14.142124"
           width="14.142124"
           id="rect4120"
           style="opacity:1;fill:none;fill-opacity:1;stroke:#404243;stroke-width:1;stroke-linecap:square;stroke-linejoin:round;stroke-miterlimit:4;stroke-dasharray:none;stroke-dashoffset:0;stroke-opacity:1" />
        <rect
           y="127.49985"
           x="92.889114"
           height="14.142124"
           width="14.142124"
           id="rect4122"
           style="opacity:1;fill:none;fill-opacity:1;stroke:#404243;stroke-width:1;stroke-linecap:square;stroke-linejoin:round;stroke-miterlimit:4;stroke-dasharray:none;stroke-dashoffset:0;stroke-opacity:1" />
        <rect
           style="opacity:1;fill:none;fill-opacity:1;stroke:#404243;stroke-width:1;stroke-linecap:square;stroke-linejoin:round;stroke-miterlimit:4;stroke-dasharray:none;stroke-dashoffset:0;stroke-opacity:1"
           id="rect4124"
           width="14.142124"
           height="14.142124"
           x="107.03125"
           y="127.49985" />
        <circle
           r="1"
           cy="113.28057"
           cx="92.885307"
           id="circle4134"
           style="opacity:1;fill:#bc3b3a;fill-opacity:1;stroke:#404243;stroke-width:0.44;stroke-linecap:square;stroke-linejoin:round;stroke-miterlimit:4;stroke-dasharray:none;stroke-dashoffset:0;stroke-opacity:1" />
        <circle
           style="opacity:1;fill:#bc3b3a;fill-opacity:1;stroke:none;stroke-width:1.02789;stroke-linecap:square;stroke-linejoin:round;stroke-miterlimit:4;stroke-dasharray:none;stroke-dashoffset:0;stroke-opacity:1"
           id="circle4136"
           cx="121.17957"
           cy="113.19715"
           r="1" />
        <circle
           r="1"
           cy="113.28057"
           cx="107.06262"
           id="circle4138"
           style="opacity:1;fill:#bc3b3a;fill-opacity:1;stroke:#404243;stroke-width:0.44;stroke-linecap:square;stroke-linejoin:round;stroke-miterlimit:4;stroke-dasharray:none;stroke-dashoffset:0;stroke-opacity:1" />
        <circle
           r="1"
           cy="113.28057"
           cx="121.16588"
           id="circle4140"
           style="opacity:1;fill:#bc3b3a;fill-opacity:1;stroke:#404243;stroke-width:0.44;stroke-linecap:square;stroke-linejoin:round;stroke-miterlimit:4;stroke-dasharray:none;stroke-dashoffset:0;stroke-opacity:1" />
        <circle
           style="opacity:1;fill:#bc3b3a;fill-opacity:1;stroke:#404243;stroke-width:0.44;stroke-linecap:square;stroke-linejoin:round;stroke-miterlimit:4;stroke-dasharray:none;stroke-dashoffset:0;stroke-opacity:1"
           id="circle4142"
           cx="100.02967"
           cy="113.28057"
           r="1" />
        <circle
           r="1"
           cy="113.28057"
           cx="114.00841"
           id="circle4144"
           style="opacity:1;fill:#bc3b3a;fill-opacity:1;stroke:#404243;stroke-width:0.44;stroke-linecap:square;stroke-linejoin:round;stroke-miterlimit:4;stroke-dasharray:none;stroke-dashoffset:0;stroke-opacity:1" />
        <circle
           style="opacity:1;fill:#bc3b3a;fill-opacity:1;stroke:none;stroke-width:1.02789;stroke-linecap:square;stroke-linejoin:round;stroke-miterlimit:4;stroke-dasharray:none;stroke-dashoffset:0;stroke-opacity:1"
           id="circle4146"
           cx="121.20819"
           cy="120.2849"
           r="1" />
        <circle
           style="opacity:1;fill:#bc3b3a;fill-opacity:1;stroke:none;stroke-width:1.02789;stroke-linecap:square;stroke-linejoin:round;stroke-miterlimit:4;stroke-dasharray:none;stroke-dashoffset:0;stroke-opacity:1"
           id="circle4148"
           cx="92.804955"
           cy="127.39344"
           r="1" />
        <circle
           r="1"
           cy="127.37258"
           cx="121.17957"
           id="circle4150"
           style="opacity:1;fill:#bc3b3a;fill-opacity:1;stroke:none;stroke-width:1.02789;stroke-linecap:square;stroke-linejoin:round;stroke-miterlimit:4;stroke-dasharray:none;stroke-dashoffset:0;stroke-opacity:1" />
        <circle
           style="opacity:1;fill:#bc3b3a;fill-opacity:1;stroke:none;stroke-width:1.02789;stroke-linecap:square;stroke-linejoin:round;stroke-miterlimit:4;stroke-dasharray:none;stroke-dashoffset:0;stroke-opacity:1"
           id="circle4152"
           cx="107.12112"
           cy="127.37258"
           r="1" />
        <circle
           r="1"
           cy="127.37258"
           cx="92.885307"
           id="circle4154"
           style="opacity:1;fill:#bc3b3a;fill-opacity:1;stroke:#404243;stroke-width:0.44;stroke-linecap:square;stroke-linejoin:round;stroke-miterlimit:4;stroke-dasharray:none;stroke-dashoffset:0;stroke-opacity:1" />
        <circle
           style="opacity:1;fill:#bc3b3a;fill-opacity:1;stroke:none;stroke-width:1.02789;stroke-linecap:square;stroke-linejoin:round;stroke-miterlimit:4;stroke-dasharray:none;stroke-dashoffset:0;stroke-opacity:1"
           id="circle4156"
           cx="121.17957"
           cy="127.37258"
           r="1" />
        <circle
           r="1"
           cy="127.39344"
           cx="107.06262"
           id="circle4158"
           style="opacity:1;fill:#bc3b3a;fill-opacity:1;stroke:#404243;stroke-width:0.44;stroke-linecap:square;stroke-linejoin:round;stroke-miterlimit:4;stroke-dasharray:none;stroke-dashoffset:0;stroke-opacity:1" />
        <circle
           r="1"
           cy="127.39344"
           cx="121.16588"
           id="circle4160"
           style="opacity:1;fill:#bc3b3a;fill-opacity:1;stroke:#404243;stroke-width:0.44;stroke-linecap:square;stroke-linejoin:round;stroke-miterlimit:4;stroke-dasharray:none;stroke-dashoffset:0;stroke-opacity:1" />
        <circle
           r="1"
           cy="127.39344"
           cx="100.02967"
           id="circle4162"
           style="opacity:1;fill:#bc3b3a;fill-opacity:1;stroke:#404243;stroke-width:0.44;stroke-linecap:square;stroke-linejoin:round;stroke-miterlimit:4;stroke-dasharray:none;stroke-dashoffset:0;stroke-opacity:1" />
        <circle
           style="opacity:1;fill:#bc3b3a;fill-opacity:1;stroke:#404243;stroke-width:0.44;stroke-linecap:square;stroke-linejoin:round;stroke-miterlimit:4;stroke-dasharray:none;stroke-dashoffset:0;stroke-opacity:1"
           id="circle4164"
           cx="114.00841"
           cy="127.39344"
           r="1" />
        <circle
           r="1"
           cy="141.62895"
           cx="92.804955"
           id="circle4166"
           style="opacity:1;fill:#bc3b3a;fill-opacity:1;stroke:none;stroke-width:1.02789;stroke-linecap:square;stroke-linejoin:round;stroke-miterlimit:4;stroke-dasharray:none;stroke-dashoffset:0;stroke-opacity:1" />
        <circle
           style="opacity:1;fill:#bc3b3a;fill-opacity:1;stroke:none;stroke-width:1.02789;stroke-linecap:square;stroke-linejoin:round;stroke-miterlimit:4;stroke-dasharray:none;stroke-dashoffset:0;stroke-opacity:1"
           id="circle4168"
           cx="121.17957"
           cy="141.62895"
           r="1" />
        <circle
           r="1"
           cy="141.62895"
           cx="107.12112"
           id="circle4170"
           style="opacity:1;fill:#bc3b3a;fill-opacity:1;stroke:none;stroke-width:1.02789;stroke-linecap:square;stroke-linejoin:round;stroke-miterlimit:4;stroke-dasharray:none;stroke-dashoffset:0;stroke-opacity:1" />
        <circle
           style="opacity:1;fill:#bc3b3a;fill-opacity:1;stroke:#404243;stroke-width:0.44;stroke-linecap:square;stroke-linejoin:round;stroke-miterlimit:4;stroke-dasharray:none;stroke-dashoffset:0;stroke-opacity:1"
           id="circle4172"
           cx="92.885307"
           cy="141.62895"
           r="1" />
        <circle
           r="1"
           cy="141.62895"
           cx="121.17957"
           id="circle4174"
           style="opacity:1;fill:#bc3b3a;fill-opacity:1;stroke:none;stroke-width:1.02789;stroke-linecap:square;stroke-linejoin:round;stroke-miterlimit:4;stroke-dasharray:none;stroke-dashoffset:0;stroke-opacity:1" />
        <circle
           style="opacity:1;fill:#bc3b3a;fill-opacity:1;stroke:#404243;stroke-width:0.44;stroke-linecap:square;stroke-linejoin:round;stroke-miterlimit:4;stroke-dasharray:none;stroke-dashoffset:0;stroke-opacity:1"
           id="circle4176"
           cx="107.06262"
           cy="141.62895"
           r="1" />
        <circle
           style="opacity:1;fill:#bc3b3a;fill-opacity:1;stroke:#404243;stroke-width:0.44;stroke-linecap:square;stroke-linejoin:round;stroke-miterlimit:4;stroke-dasharray:none;stroke-dashoffset:0;stroke-opacity:1"
           id="circle4178"
           cx="121.16588"
           cy="141.62895"
           r="1" />
        <circle
           style="opacity:1;fill:#bc3b3a;fill-opacity:1;stroke:#404243;stroke-width:0.44;stroke-linecap:square;stroke-linejoin:round;stroke-miterlimit:4;stroke-dasharray:none;stroke-dashoffset:0;stroke-opacity:1"
           id="circle4180"
           cx="100.02967"
           cy="141.62895"
           r="1" />
        <circle
           r="1"
           cy="141.62895"
           cx="114.00841"
           id="circle4182"
           style="opacity:1;fill:#bc3b3a;fill-opacity:1;stroke:#404243;stroke-width:0.44;stroke-linecap:square;stroke-linejoin:round;stroke-miterlimit:4;stroke-dasharray:none;stroke-dashoffset:0;stroke-opacity:1" />
        <circle
           r="1"
           cy="120.2849"
           cx="107.06262"
           id="circle4184"
           style="opacity:1;fill:#bc3b3a;fill-opacity:1;stroke:#404243;stroke-width:0.44;stroke-linecap:square;stroke-linejoin:round;stroke-miterlimit:4;stroke-dasharray:none;stroke-dashoffset:0;stroke-opacity:1" />
        <circle
           style="opacity:1;fill:#bc3b3a;fill-opacity:1;stroke:#404243;stroke-width:0.44;stroke-linecap:square;stroke-linejoin:round;stroke-miterlimit:4;stroke-dasharray:none;stroke-dashoffset:0;stroke-opacity:1"
           id="circle4186"
           cx="92.885307"
           cy="120.2849"
           r="1" />
        <circle
           r="1"
           cy="120.2849"
           cx="121.16588"
           id="circle4188"
           style="opacity:1;fill:#bc3b3a;fill-opacity:1;stroke:#404243;stroke-width:0.44;stroke-linecap:square;stroke-linejoin:round;stroke-miterlimit:4;stroke-dasharray:none;stroke-dashoffset:0;stroke-opacity:1" />
        <circle
           style="opacity:1;fill:#bc3b3a;fill-opacity:1;stroke:#404243;stroke-width:0.44;stroke-linecap:square;stroke-linejoin:round;stroke-miterlimit:4;stroke-dasharray:none;stroke-dashoffset:0;stroke-opacity:1"
           id="circle4190"
           cx="121.16588"
           cy="134.37692"
           r="1" />
        <circle
           r="1"
           cy="134.37692"
           cx="107.06262"
           id="circle4192"
           style="opacity:1;fill:#bc3b3a;fill-opacity:1;stroke:#404243;stroke-width:0.44;stroke-linecap:square;stroke-linejoin:round;stroke-miterlimit:4;stroke-dasharray:none;stroke-dashoffset:0;stroke-opacity:1" />
        <circle
           style="opacity:1;fill:#bc3b3a;fill-opacity:1;stroke:#404243;stroke-width:0.44;stroke-linecap:square;stroke-linejoin:round;stroke-miterlimit:4;stroke-dasharray:none;stroke-dashoffset:0;stroke-opacity:1"
           id="circle4194"
           cx="92.885307"
           cy="134.37692"
           r="1" />
        <circle
           r="1"
           cy="120.2849"
           cx="114.00841"
           id="circle4196"
           style="opacity:1;fill:#bc3b3a;fill-opacity:1;stroke:#404243;stroke-width:0.44;stroke-linecap:square;stroke-linejoin:round;stroke-miterlimit:4;stroke-dasharray:none;stroke-dashoffset:0;stroke-opacity:1" />
        <circle
           style="opacity:1;fill:#bc3b3a;fill-opacity:1;stroke:#404243;stroke-width:0.44;stroke-linecap:square;stroke-linejoin:round;stroke-miterlimit:4;stroke-dasharray:none;stroke-dashoffset:0;stroke-opacity:1"
           id="circle4198"
           cx="114.00841"
           cy="134.37698"
           r="1" />
        <circle
           r="1"
           cy="134.37698"
           cx="100.02967"
           id="circle4200"
           style="opacity:1;fill:#bc3b3a;fill-opacity:1;stroke:#404243;stroke-width:0.44;stroke-linecap:square;stroke-linejoin:round;stroke-miterlimit:4;stroke-dasharray:none;stroke-dashoffset:0;stroke-opacity:1" />
        <circle
           style="opacity:1;fill:#bc3b3a;fill-opacity:1;stroke:#404243;stroke-width:0.44;stroke-linecap:square;stroke-linejoin:round;stroke-miterlimit:4;stroke-dasharray:none;stroke-dashoffset:0;stroke-opacity:1"
           id="circle4238"
           cx="100.25008"
           cy="120.2849"
           r="1" />
      </g>
      <g
         transform="translate(183.0917,53.445836)"
         id="g4464">
        <rect
           y="180.41656"
           x="15.630771"
           height="14.142124"
           width="14.142124"
           id="rect4424"
           style="opacity:1;fill:none;fill-opacity:1;stroke:#404243;stroke-width:1;stroke-linecap:square;stroke-linejoin:round;stroke-miterlimit:4;stroke-dasharray:none;stroke-dashoffset:0;stroke-opacity:1" />
        <rect
           style="opacity:1;fill:none;fill-opacity:1;stroke:#404243;stroke-width:1;stroke-linecap:square;stroke-linejoin:round;stroke-miterlimit:4;stroke-dasharray:none;stroke-dashoffset:0;stroke-opacity:1"
           id="rect4426"
           width="14.142124"
           height="14.142124"
           x="29.77289"
           y="180.41656" />
        <rect
           y="166.27441"
           x="15.630771"
           height="14.142124"
           width="14.142124"
           id="rect4428"
           style="opacity:1;fill:none;fill-opacity:1;stroke:#404243;stroke-width:1;stroke-linecap:square;stroke-linejoin:round;stroke-miterlimit:4;stroke-dasharray:none;stroke-dashoffset:0;stroke-opacity:1" />
        <rect
           style="opacity:1;fill:none;fill-opacity:1;stroke:#404243;stroke-width:1;stroke-linecap:square;stroke-linejoin:round;stroke-miterlimit:4;stroke-dasharray:none;stroke-dashoffset:0;stroke-opacity:1"
           id="rect4430"
           width="14.142124"
           height="14.142124"
           x="29.77289"
           y="166.27441" />
        <rect
           style="opacity:1;fill:none;fill-opacity:1;stroke:#404243;stroke-width:1;stroke-linecap:square;stroke-linejoin:round;stroke-miterlimit:4;stroke-dasharray:none;stroke-dashoffset:0;stroke-opacity:1"
           id="rect4432"
           width="14.142124"
           height="14.142124"
           x="15.630771"
           y="180.41656" />
        <rect
           y="180.41656"
           x="29.77289"
           height="14.142124"
           width="14.142124"
           id="rect4434"
           style="opacity:1;fill:none;fill-opacity:1;stroke:#404243;stroke-width:1;stroke-linecap:square;stroke-linejoin:round;stroke-miterlimit:4;stroke-dasharray:none;stroke-dashoffset:0;stroke-opacity:1" />
        <circle
           r="1.5789458"
           cy="166.22125"
           cx="15.577601"
           id="circle4436"
           style="opacity:1;fill:#305e89;fill-opacity:1;stroke:none;stroke-width:1;stroke-linecap:square;stroke-linejoin:round;stroke-miterlimit:4;stroke-dasharray:none;stroke-dashoffset:0;stroke-opacity:1" />
        <circle
           style="opacity:1;fill:#305e89;fill-opacity:1;stroke:none;stroke-width:1;stroke-linecap:square;stroke-linejoin:round;stroke-miterlimit:4;stroke-dasharray:none;stroke-dashoffset:0;stroke-opacity:1"
           id="circle4438"
           cx="29.758783"
           cy="166.11494"
           r="1.5789458" />
        <circle
           r="1.5789458"
           cy="166.11494"
           cx="43.836124"
           id="circle4440"
           style="opacity:1;fill:#305e89;fill-opacity:1;stroke:none;stroke-width:1;stroke-linecap:square;stroke-linejoin:round;stroke-miterlimit:4;stroke-dasharray:none;stroke-dashoffset:0;stroke-opacity:1" />
        <circle
           r="1.5789458"
           cy="180.50854"
           cx="15.577601"
           id="circle4442"
           style="opacity:1;fill:#305e89;fill-opacity:1;stroke:none;stroke-width:1;stroke-linecap:square;stroke-linejoin:round;stroke-miterlimit:4;stroke-dasharray:none;stroke-dashoffset:0;stroke-opacity:1" />
        <circle
           style="opacity:1;fill:#305e89;fill-opacity:1;stroke:none;stroke-width:1;stroke-linecap:square;stroke-linejoin:round;stroke-miterlimit:4;stroke-dasharray:none;stroke-dashoffset:0;stroke-opacity:1"
           id="circle4444"
           cx="29.758783"
           cy="180.40221"
           r="1.5789458" />
        <circle
           r="1.5789458"
           cy="180.40221"
           cx="43.836124"
           id="circle4446"
           style="opacity:1;fill:#305e89;fill-opacity:1;stroke:none;stroke-width:1;stroke-linecap:square;stroke-linejoin:round;stroke-miterlimit:4;stroke-dasharray:none;stroke-dashoffset:0;stroke-opacity:1" />
        <rect
           style="opacity:1;fill:none;fill-opacity:1;stroke:#404243;stroke-width:1;stroke-linecap:square;stroke-linejoin:round;stroke-miterlimit:4;stroke-dasharray:none;stroke-dashoffset:0;stroke-opacity:1"
           id="rect4448"
           width="14.142124"
           height="14.142124"
           x="15.630771"
           y="166.27441" />
        <rect
           y="166.27441"
           x="29.77289"
           height="14.142124"
           width="14.142124"
           id="rect4450"
           style="opacity:1;fill:none;fill-opacity:1;stroke:#404243;stroke-width:1;stroke-linecap:square;stroke-linejoin:round;stroke-miterlimit:4;stroke-dasharray:none;stroke-dashoffset:0;stroke-opacity:1" />
        <circle
           style="opacity:1;fill:#305e89;fill-opacity:1;stroke:#404243;stroke-width:0.44;stroke-linecap:square;stroke-linejoin:round;stroke-miterlimit:4;stroke-dasharray:none;stroke-dashoffset:0;stroke-opacity:1"
           id="circle4452"
           cx="15.577601"
           cy="166.22125"
           r="1.5789458" />
        <circle
           r="1.5789458"
           cy="166.11494"
           cx="29.758783"
           id="circle4454"
           style="opacity:1;fill:#305e89;fill-opacity:1;stroke:#404243;stroke-width:0.44;stroke-linecap:square;stroke-linejoin:round;stroke-miterlimit:4;stroke-dasharray:none;stroke-dashoffset:0;stroke-opacity:1" />
        <circle
           style="opacity:1;fill:#305e89;fill-opacity:1;stroke:#404243;stroke-width:0.44;stroke-linecap:square;stroke-linejoin:round;stroke-miterlimit:4;stroke-dasharray:none;stroke-dashoffset:0;stroke-opacity:1"
           id="circle4456"
           cx="43.836124"
           cy="166.11494"
           r="1.5789458" />
        <circle
           style="opacity:1;fill:#305e89;fill-opacity:1;stroke:#404243;stroke-width:0.44;stroke-linecap:square;stroke-linejoin:round;stroke-miterlimit:4;stroke-dasharray:none;stroke-dashoffset:0;stroke-opacity:1"
           id="circle4458"
           cx="15.577601"
           cy="180.50854"
           r="1.5789458" />
        <circle
           r="1.5789458"
           cy="180.40221"
           cx="29.758783"
           id="circle4460"
           style="opacity:1;fill:#305e89;fill-opacity:1;stroke:#404243;stroke-width:0.44;stroke-linecap:square;stroke-linejoin:round;stroke-miterlimit:4;stroke-dasharray:none;stroke-dashoffset:0;stroke-opacity:1" />
        <circle
           style="opacity:1;fill:#305e89;fill-opacity:1;stroke:#404243;stroke-width:0.44;stroke-linecap:square;stroke-linejoin:round;stroke-miterlimit:4;stroke-dasharray:none;stroke-dashoffset:0;stroke-opacity:1"
           id="circle4462"
           cx="43.836124"
           cy="180.40221"
           r="1.5789458" />
      </g>
      <circle
         r="1.5789458"
         cy="248.03409"
         cx="198.66937"
         id="circle4466"
         style="opacity:1;fill:#305e89;fill-opacity:1;stroke:#404243;stroke-width:0.44;stroke-linecap:square;stroke-linejoin:round;stroke-miterlimit:4;stroke-dasharray:none;stroke-dashoffset:0;stroke-opacity:1" />
      <circle
         style="opacity:1;fill:#305e89;fill-opacity:1;stroke:#404243;stroke-width:0.44;stroke-linecap:square;stroke-linejoin:round;stroke-miterlimit:4;stroke-dasharray:none;stroke-dashoffset:0;stroke-opacity:1"
         id="circle4468"
         cx="212.85059"
         cy="247.92775"
         r="1.5789458" />
      <circle
         r="1.5789458"
         cy="247.92775"
         cx="226.92792"
         id="circle4470"
         style="opacity:1;fill:#305e89;fill-opacity:1;stroke:#404243;stroke-width:0.44;stroke-linecap:square;stroke-linejoin:round;stroke-miterlimit:4;stroke-dasharray:none;stroke-dashoffset:0;stroke-opacity:1" />
    </g>
  </g>
</svg>
