<?xml version="1.0"?>
<!DOCTYPE svg PUBLIC '-//W3C//DTD SVG 1.0//EN'
          'http://www.w3.org/TR/2001/REC-SVG-20010904/DTD/svg10.dtd'>
<svg xmlns:xlink="http://www.w3.org/1999/xlink" style="fill-opacity:1; color-rendering:auto; color-interpolation:auto; text-rendering:auto; stroke:black; stroke-linecap:square; stroke-miterlimit:10; shape-rendering:auto; stroke-opacity:1; fill:black; stroke-dasharray:none; font-weight:normal; stroke-width:1; font-family:'Dialog'; font-style:normal; stroke-linejoin:miter; font-size:12px; stroke-dashoffset:0; image-rendering:auto;" width="560" height="420" xmlns="http://www.w3.org/2000/svg"
><!--Generated by the Batik Graphics2D SVG Generator--><defs id="genericDefs"
  /><g
  ><defs id="defs1"
    ><clipPath clipPathUnits="userSpaceOnUse" id="clipPath1"
      ><path d="M0 0 L560 0 L560 420 L0 420 L0 0 Z"
      /></clipPath
      ><font horiz-adv-x="50.0" id="font1"
      ><font-face ascent="95.200005" descent="21.3" units-per-em="100" style="font-style:normal; font-family:Helvetica Neue; font-weight:normal;"
        /><missing-glyph horiz-adv-x="50.0" d="M40.9 66.6 L10.2 66.6 L10.2 4.7 L40.9 4.7 ZM46 71.2 L46 0.1 L5.1 0.1 L5.1 71.2 Z"
        /><glyph unicode="0" horiz-adv-x="55.6" d="M13.2 34.9 Q13.2 37.5 13.25 40.65 Q13.3 43.8 13.75 46.95 Q14.2 50.1 15.05 53.1 Q15.9 56.1 17.55 58.35 Q19.2 60.6 21.7 62 Q24.2 63.4 27.8 63.4 Q31.4 63.4 33.9 62 Q36.4 60.6 38.05 58.35 Q39.7 56.1 40.55 53.1 Q41.4 50.1 41.85 46.95 Q42.3 43.8 42.35 40.65 Q42.4 37.5 42.4 34.9 Q42.4 30.9 42.15 25.95 Q41.9 21 40.55 16.65 Q39.2 12.3 36.2 9.3 Q33.2 6.3 27.8 6.3 Q22.4 6.3 19.4 9.3 Q16.4 12.3 15.05 16.65 Q13.7 21 13.45 25.95 Q13.2 30.9 13.2 34.9 ZM4.2 34.8 Q4.2 30.9 4.4 26.7 Q4.6 22.5 5.4 18.5 Q6.2 14.5 7.7 10.95 Q9.2 7.4 11.8 4.7 Q14.4 2 18.35 0.45 Q22.3 -1.1 27.8 -1.1 Q33.4 -1.1 37.3 0.45 Q41.2 2 43.8 4.7 Q46.4 7.4 47.9 10.95 Q49.4 14.5 50.2 18.5 Q51 22.5 51.2 26.7 Q51.4 30.9 51.4 34.8 Q51.4 38.7 51.2 42.9 Q51 47.1 50.2 51.1 Q49.4 55.1 47.9 58.7 Q46.4 62.3 43.8 65 Q41.2 67.7 37.25 69.3 Q33.3 70.9 27.8 70.9 Q22.3 70.9 18.35 69.3 Q14.4 67.7 11.8 65 Q9.2 62.3 7.7 58.7 Q6.2 55.1 5.4 51.1 Q4.6 47.1 4.4 42.9 Q4.2 38.7 4.2 34.8 Z"
        /><glyph unicode="1" horiz-adv-x="55.6" d="M35.6 0 L35.6 70.9 L29.1 70.9 Q28.4 66.9 26.5 64.3 Q24.6 61.7 21.85 60.2 Q19.1 58.7 15.7 58.15 Q12.3 57.6 8.7 57.6 L8.7 50.8 L27.1 50.8 L27.1 0 Z"
        /><glyph unicode="2" horiz-adv-x="55.6" d="M4.4 45.8 L12.9 45.8 Q12.8 49 13.55 52.15 Q14.3 55.3 16 57.8 Q17.7 60.3 20.35 61.85 Q23 63.4 26.7 63.4 Q29.5 63.4 32 62.5 Q34.5 61.6 36.35 59.9 Q38.2 58.2 39.3 55.85 Q40.4 53.5 40.4 50.6 Q40.4 46.9 39.25 44.1 Q38.1 41.3 35.85 38.9 Q33.6 36.5 30.2 34.15 Q26.8 31.8 22.3 29 Q18.6 26.8 15.2 24.3 Q11.8 21.8 9.1 18.5 Q6.4 15.2 4.65 10.75 Q2.9 6.3 2.4 0 L48.7 0 L48.7 7.5 L12.3 7.5 Q12.9 10.8 14.85 13.35 Q16.8 15.9 19.55 18.1 Q22.3 20.3 25.6 22.25 Q28.9 24.2 32.2 26.2 Q35.5 28.3 38.6 30.6 Q41.7 32.9 44.1 35.75 Q46.5 38.6 47.95 42.2 Q49.4 45.8 49.4 50.5 Q49.4 55.5 47.65 59.3 Q45.9 63.1 42.9 65.65 Q39.9 68.2 35.85 69.55 Q31.8 70.9 27.2 70.9 Q21.6 70.9 17.2 69 Q12.8 67.1 9.85 63.75 Q6.9 60.4 5.5 55.8 Q4.1 51.2 4.4 45.8 Z"
        /><glyph unicode="3" horiz-adv-x="55.6" d="M21.8 40.5 L21.8 33.3 Q24.2 33.6 26.9 33.6 Q30.1 33.6 32.85 32.75 Q35.6 31.9 37.6 30.15 Q39.6 28.4 40.8 25.85 Q42 23.3 42 20 Q42 16.8 40.75 14.25 Q39.5 11.7 37.4 9.95 Q35.3 8.2 32.5 7.25 Q29.7 6.3 26.6 6.3 Q19.3 6.3 15.5 10.65 Q11.7 15 11.5 21.9 L3 21.9 Q2.9 16.4 4.55 12.1 Q6.2 7.8 9.3 4.85 Q12.4 1.9 16.8 0.4 Q21.2 -1.1 26.6 -1.1 Q31.6 -1.1 36.05 0.25 Q40.5 1.6 43.8 4.3 Q47.1 7 49.05 11.05 Q51 15.1 51 20.4 Q51 26.8 47.85 31.5 Q44.7 36.2 38.2 37.6 L38.2 37.8 Q42.4 39.7 45.2 43.4 Q48 47.1 48 51.9 Q48 56.8 46.35 60.4 Q44.7 64 41.8 66.3 Q38.9 68.6 34.95 69.75 Q31 70.9 26.4 70.9 Q21.1 70.9 17.05 69.2 Q13 67.5 10.3 64.5 Q7.6 61.5 6.15 57.3 Q4.7 53.1 4.5 48 L13 48 Q13 51.1 13.8 53.9 Q14.6 56.7 16.25 58.8 Q17.9 60.9 20.45 62.15 Q23 63.4 26.4 63.4 Q31.8 63.4 35.4 60.55 Q39 57.7 39 52 Q39 49.2 37.9 47 Q36.8 44.8 34.95 43.35 Q33.1 41.9 30.65 41.15 Q28.2 40.4 25.5 40.4 L23.7 40.4 Q23.2 40.4 22.7 40.4 Q22.3 40.4 21.8 40.5 Z"
        /><glyph unicode="4" horiz-adv-x="55.6" d="M33.9 24.1 L10.1 24.1 L33.7 58.8 L33.9 58.8 ZM41.9 24.1 L41.9 70.9 L35.1 70.9 L2.8 24.8 L2.8 16.6 L33.9 16.6 L33.9 0 L41.9 0 L41.9 16.6 L51.5 16.6 L51.5 24.1 Z"
        /><glyph unicode="5" horiz-adv-x="55.6" d="M47 62.2 L47 69.7 L12 69.7 L5.4 32.9 L12.7 32.5 Q15.2 35.5 18.45 37.35 Q21.7 39.2 25.9 39.2 Q29.5 39.2 32.45 38 Q35.4 36.8 37.5 34.65 Q39.6 32.5 40.75 29.55 Q41.9 26.6 41.9 23.1 Q41.9 18.9 40.7 15.75 Q39.5 12.6 37.45 10.5 Q35.4 8.4 32.65 7.35 Q29.9 6.3 26.9 6.3 Q23.7 6.3 21.05 7.25 Q18.4 8.2 16.45 9.95 Q14.5 11.7 13.35 14.05 Q12.2 16.4 12 19.1 L3.5 19.1 Q3.6 14.3 5.4 10.5 Q7.2 6.7 10.3 4.15 Q13.4 1.6 17.45 0.25 Q21.5 -1.1 26.1 -1.1 Q32.3 -1.1 36.95 0.85 Q41.6 2.8 44.7 6.1 Q47.8 9.4 49.35 13.65 Q50.9 17.9 50.9 22.4 Q50.9 28.5 49.1 33.05 Q47.3 37.6 44.2 40.65 Q41.1 43.7 36.9 45.2 Q32.7 46.7 28 46.7 Q24.4 46.7 20.75 45.45 Q17.1 44.2 14.8 41.6 L14.6 41.8 L18.4 62.2 Z"
        /><glyph unicode="6" horiz-adv-x="55.6" d="M41.4 52.8 L49.9 52.8 Q49.1 61.6 43.9 66.25 Q38.7 70.9 29.9 70.9 Q22.3 70.9 17.3 67.7 Q12.3 64.5 9.3 59.2 Q6.3 53.9 5.05 47.05 Q3.8 40.2 3.8 32.9 Q3.8 27.3 4.65 21.3 Q5.5 15.3 8.1 10.3 Q10.7 5.3 15.5 2.1 Q20.3 -1.1 28.2 -1.1 Q34.9 -1.1 39.45 1.15 Q44 3.4 46.75 6.85 Q49.5 10.3 50.7 14.5 Q51.9 18.7 51.9 22.6 Q51.9 27.5 50.4 31.7 Q48.9 35.9 46.15 39 Q43.4 42.1 39.35 43.85 Q35.3 45.6 30.2 45.6 Q24.4 45.6 19.95 43.4 Q15.5 41.2 12.5 36.3 L12.3 36.5 Q12.4 40.6 13.1 45.3 Q13.8 50 15.65 54.05 Q17.5 58.1 20.8 60.75 Q24.1 63.4 29.5 63.4 Q34.6 63.4 37.7 60.5 Q40.8 57.6 41.4 52.8 ZM28.6 38.1 Q32.2 38.1 34.9 36.8 Q37.6 35.5 39.4 33.35 Q41.2 31.2 42.05 28.25 Q42.9 25.3 42.9 22 Q42.9 18.9 41.95 16.05 Q41 13.2 39.2 11 Q37.4 8.8 34.75 7.55 Q32.1 6.3 28.6 6.3 Q25.1 6.3 22.35 7.55 Q19.6 8.8 17.75 10.9 Q15.9 13 14.9 15.9 Q13.9 18.8 13.9 22.1 Q13.9 25.4 14.85 28.35 Q15.8 31.3 17.7 33.45 Q19.6 35.6 22.3 36.85 Q25 38.1 28.6 38.1 Z"
        /><glyph unicode="7" horiz-adv-x="55.6" d="M50.9 62.4 L50.9 69.7 L5 69.7 L5 61.7 L42.2 61.7 Q36.6 55.8 31.75 48.8 Q26.9 41.8 23.2 33.95 Q19.5 26.1 17.15 17.55 Q14.8 9 14.2 0 L23.7 0 Q24.2 8.3 26.5 17.1 Q28.8 25.9 32.45 34.2 Q36.1 42.5 40.8 49.8 Q45.5 57.1 50.9 62.4 Z"
        /><glyph unicode="d" horiz-adv-x="59.3" d="M12.6 25.4 Q12.6 29.2 13.4 32.8 Q14.2 36.4 16 39.2 Q17.8 42 20.8 43.7 Q23.8 45.4 28.1 45.4 Q32.5 45.4 35.6 43.75 Q38.7 42.1 40.65 39.4 Q42.6 36.7 43.5 33.15 Q44.4 29.6 44.4 25.8 Q44.4 22.2 43.55 18.7 Q42.7 15.2 40.8 12.45 Q38.9 9.7 35.9 8 Q32.9 6.3 28.6 6.3 Q24.5 6.3 21.45 7.9 Q18.4 9.5 16.45 12.2 Q14.5 14.9 13.55 18.35 Q12.6 21.8 12.6 25.4 ZM52.6 0 L52.6 71.4 L44.1 71.4 L44.1 44.8 L43.9 44.8 Q42.5 47.1 40.45 48.65 Q38.4 50.2 36.1 51.15 Q33.8 52.1 31.5 52.5 Q29.2 52.9 27.2 52.9 Q21.3 52.9 16.85 50.75 Q12.4 48.6 9.45 44.95 Q6.5 41.3 5.05 36.4 Q3.6 31.5 3.6 26 Q3.6 20.5 5.1 15.6 Q6.6 10.7 9.55 7 Q12.5 3.3 16.95 1.1 Q21.4 -1.1 27.4 -1.1 Q32.8 -1.1 37.3 0.8 Q41.8 2.7 43.9 7 L44.1 7 L44.1 0 Z"
        /><glyph unicode="a" horiz-adv-x="53.7" d="M52.2 0.2 Q50 -1.1 46.1 -1.1 Q42.8 -1.1 40.85 0.75 Q38.9 2.6 38.9 6.8 Q35.4 2.6 30.75 0.75 Q26.1 -1.1 20.7 -1.1 Q17.2 -1.1 14.05 -0.3 Q10.9 0.5 8.6 2.2 Q6.3 3.9 4.95 6.65 Q3.6 9.4 3.6 13.3 Q3.6 17.7 5.1 20.5 Q6.6 23.3 9.05 25.05 Q11.5 26.8 14.65 27.7 Q17.8 28.6 21.1 29.2 Q24.6 29.9 27.75 30.25 Q30.9 30.6 33.3 31.25 Q35.7 31.9 37.1 33.15 Q38.5 34.4 38.5 36.8 Q38.5 39.6 37.45 41.3 Q36.4 43 34.75 43.9 Q33.1 44.8 31.05 45.1 Q29 45.4 27 45.4 Q21.6 45.4 18 43.35 Q14.4 41.3 14.1 35.6 L5.6 35.6 Q5.8 40.4 7.6 43.7 Q9.4 47 12.4 49.05 Q15.4 51.1 19.25 52 Q23.1 52.9 27.5 52.9 Q31 52.9 34.45 52.4 Q37.9 51.9 40.7 50.35 Q43.5 48.8 45.2 46 Q46.9 43.2 46.9 38.7 L46.9 12.1 Q46.9 9.1 47.25 7.7 Q47.6 6.3 49.6 6.3 Q50.7 6.3 52.2 6.8 ZM38.4 26.7 Q36.8 25.5 34.2 24.95 Q31.6 24.4 28.75 24.05 Q25.9 23.7 23 23.25 Q20.1 22.8 17.8 21.8 Q15.5 20.8 14.05 18.95 Q12.6 17.1 12.6 13.9 Q12.6 11.8 13.45 10.35 Q14.3 8.9 15.65 8 Q17 7.1 18.8 6.7 Q20.6 6.3 22.6 6.3 Q26.8 6.3 29.8 7.45 Q32.8 8.6 34.7 10.35 Q36.6 12.1 37.5 14.15 Q38.4 16.2 38.4 18 Z"
        /><glyph unicode="h" horiz-adv-x="55.6" d="M6.4 71.4 L6.4 0 L14.9 0 L14.9 29.2 Q14.9 32.7 15.85 35.65 Q16.8 38.6 18.7 40.8 Q20.6 43 23.45 44.2 Q26.3 45.4 30.2 45.4 Q35.1 45.4 37.9 42.6 Q40.7 39.8 40.7 35 L40.7 0 L49.2 0 L49.2 34 Q49.2 38.2 48.35 41.65 Q47.5 45.1 45.4 47.6 Q43.3 50.1 39.9 51.5 Q36.5 52.9 31.4 52.9 Q29.1 52.9 26.65 52.4 Q24.2 51.9 21.95 50.85 Q19.7 49.8 17.9 48.15 Q16.1 46.5 15.1 44.1 L14.9 44.1 L14.9 71.4 Z"
        /><glyph unicode="t" horiz-adv-x="31.5" d="M18.2 51.7 L18.2 67.2 L9.7 67.2 L9.7 51.7 L0.9 51.7 L0.9 44.2 L9.7 44.2 L9.7 11.3 Q9.7 7.7 10.4 5.5 Q11.1 3.3 12.55 2.1 Q14 0.9 16.35 0.45 Q18.7 0 22 0 L28.5 0 L28.5 7.5 L24.6 7.5 Q22.6 7.5 21.35 7.65 Q20.1 7.8 19.4 8.3 Q18.7 8.8 18.45 9.7 Q18.2 10.6 18.2 12.1 L18.2 44.2 L28.5 44.2 L28.5 51.7 Z"
        /><glyph unicode="s" horiz-adv-x="50.0" d="M11.6 16.3 L3.1 16.3 Q3.3 11.5 5.1 8.15 Q6.9 4.8 9.9 2.75 Q12.9 0.7 16.8 -0.2 Q20.7 -1.1 25 -1.1 Q28.9 -1.1 32.85 -0.35 Q36.8 0.4 39.95 2.3 Q43.1 4.2 45.05 7.3 Q47 10.4 47 15.1 Q47 18.8 45.55 21.3 Q44.1 23.8 41.75 25.45 Q39.4 27.1 36.35 28.1 Q33.3 29.1 30.1 29.8 Q27.1 30.5 24.1 31.15 Q21.1 31.8 18.7 32.75 Q16.3 33.7 14.75 35.15 Q13.2 36.6 13.2 38.8 Q13.2 40.8 14.2 42.05 Q15.2 43.3 16.8 44.05 Q18.4 44.8 20.35 45.1 Q22.3 45.4 24.2 45.4 Q26.3 45.4 28.35 44.95 Q30.4 44.5 32.1 43.5 Q33.8 42.5 34.9 40.85 Q36 39.2 36.2 36.7 L44.7 36.7 Q44.4 41.4 42.7 44.55 Q41 47.7 38.15 49.55 Q35.3 51.4 31.6 52.15 Q27.9 52.9 23.5 52.9 Q20.1 52.9 16.65 52.05 Q13.2 51.2 10.45 49.45 Q7.7 47.7 5.95 44.9 Q4.2 42.1 4.2 38.2 Q4.2 33.2 6.7 30.4 Q9.2 27.6 12.95 26.05 Q16.7 24.5 21.1 23.65 Q25.5 22.8 29.25 21.75 Q33 20.7 35.5 19 Q38 17.3 38 14 Q38 11.6 36.8 10.05 Q35.6 8.5 33.75 7.7 Q31.9 6.9 29.7 6.6 Q27.5 6.3 25.5 6.3 Q22.9 6.3 20.45 6.8 Q18 7.3 16.05 8.45 Q14.1 9.6 12.9 11.55 Q11.7 13.5 11.6 16.3 Z"
        /><glyph unicode="c" horiz-adv-x="53.7" d="M41.5 35.1 L50.3 35.1 Q49.8 39.7 47.9 43.05 Q46 46.4 43.05 48.6 Q40.1 50.8 36.25 51.85 Q32.4 52.9 28 52.9 Q21.9 52.9 17.3 50.75 Q12.7 48.6 9.65 44.85 Q6.6 41.1 5.1 36.05 Q3.6 31 3.6 25.2 Q3.6 19.4 5.15 14.55 Q6.7 9.7 9.75 6.2 Q12.8 2.7 17.35 0.8 Q21.9 -1.1 27.8 -1.1 Q37.7 -1.1 43.45 4.1 Q49.2 9.3 50.6 18.9 L41.9 18.9 Q41.1 12.9 37.55 9.6 Q34 6.3 27.7 6.3 Q23.7 6.3 20.8 7.9 Q17.9 9.5 16.1 12.15 Q14.3 14.8 13.45 18.2 Q12.6 21.6 12.6 25.2 Q12.6 29.1 13.4 32.75 Q14.2 36.4 16.05 39.2 Q17.9 42 21 43.7 Q24.1 45.4 28.7 45.4 Q34.1 45.4 37.3 42.7 Q40.5 40 41.5 35.1 Z"
        /><glyph unicode="p" horiz-adv-x="59.3" d="M6.7 51.7 L6.7 -19.7 L15.2 -19.7 L15.2 6.9 L15.4 6.9 Q16.8 4.6 18.85 3.05 Q20.9 1.5 23.2 0.6 Q25.5 -0.3 27.85 -0.7 Q30.2 -1.1 32.1 -1.1 Q38 -1.1 42.45 1 Q46.9 3.1 49.85 6.75 Q52.8 10.4 54.25 15.3 Q55.7 20.2 55.7 25.7 Q55.7 31.2 54.2 36.1 Q52.7 41 49.75 44.75 Q46.8 48.5 42.35 50.7 Q37.9 52.9 31.9 52.9 Q26.5 52.9 22 50.95 Q17.5 49 15.4 44.7 L15.2 44.7 L15.2 51.7 ZM46.7 26.3 Q46.7 22.5 45.9 18.9 Q45.1 15.3 43.3 12.5 Q41.5 9.7 38.55 8 Q35.6 6.3 31.2 6.3 Q26.8 6.3 23.7 7.95 Q20.6 9.6 18.65 12.3 Q16.7 15 15.8 18.55 Q14.9 22.1 14.9 25.9 Q14.9 29.5 15.75 33 Q16.6 36.5 18.5 39.25 Q20.4 42 23.4 43.7 Q26.4 45.4 30.7 45.4 Q34.8 45.4 37.85 43.8 Q40.9 42.2 42.85 39.5 Q44.8 36.8 45.75 33.35 Q46.7 29.9 46.7 26.3 Z"
        /><glyph unicode="f" horiz-adv-x="29.6" d="M9.9 44.2 L9.9 0 L18.4 0 L18.4 44.2 L28.4 44.2 L28.4 51.7 L18.4 51.7 L18.4 58.9 Q18.4 62.3 20.1 63.5 Q21.8 64.7 24.9 64.7 Q26 64.7 27.3 64.55 Q28.6 64.4 29.7 64 L29.7 71.4 Q28.5 71.8 26.95 72 Q25.4 72.2 24.2 72.2 Q17.2 72.2 13.55 68.95 Q9.9 65.7 9.9 59.4 L9.9 51.7 L1.2 51.7 L1.2 44.2 Z"
        /><glyph unicode="o" horiz-adv-x="57.4" d="M12.6 25.8 Q12.6 30.5 13.85 34.15 Q15.1 37.8 17.3 40.3 Q19.5 42.8 22.45 44.1 Q25.4 45.4 28.7 45.4 Q32 45.4 34.95 44.1 Q37.9 42.8 40.1 40.3 Q42.3 37.8 43.55 34.15 Q44.8 30.5 44.8 25.8 Q44.8 21.1 43.55 17.45 Q42.3 13.8 40.1 11.35 Q37.9 8.9 34.95 7.6 Q32 6.3 28.7 6.3 Q25.4 6.3 22.45 7.6 Q19.5 8.9 17.3 11.35 Q15.1 13.8 13.85 17.45 Q12.6 21.1 12.6 25.8 ZM3.6 25.8 Q3.6 20.1 5.2 15.2 Q6.8 10.3 10 6.65 Q13.2 3 17.9 0.95 Q22.6 -1.1 28.7 -1.1 Q34.9 -1.1 39.55 0.95 Q44.2 3 47.4 6.65 Q50.6 10.3 52.2 15.2 Q53.8 20.1 53.8 25.8 Q53.8 31.5 52.2 36.45 Q50.6 41.4 47.4 45.05 Q44.2 48.7 39.55 50.8 Q34.9 52.9 28.7 52.9 Q22.6 52.9 17.9 50.8 Q13.2 48.7 10 45.05 Q6.8 41.4 5.2 36.45 Q3.6 31.5 3.6 25.8 Z"
        /><glyph unicode=" " horiz-adv-x="27.8" d=""
        /><glyph unicode="r" horiz-adv-x="33.3" d="M6.1 51.7 L6.1 0 L14.6 0 L14.6 23 Q14.6 28 15.6 31.85 Q16.6 35.7 18.8 38.4 Q21 41.1 24.6 42.5 Q28.2 43.9 33.3 43.9 L33.3 52.9 Q26.4 53.1 21.9 50.1 Q17.4 47.1 14.3 40.8 L14.1 40.8 L14.1 51.7 Z"
        /><glyph unicode="e" horiz-adv-x="53.7" d="M42.3 30.8 L12.6 30.8 Q12.8 33.8 13.9 36.45 Q15 39.1 16.9 41.1 Q18.8 43.1 21.45 44.25 Q24.1 45.4 27.4 45.4 Q30.6 45.4 33.25 44.25 Q35.9 43.1 37.85 41.15 Q39.8 39.2 40.95 36.5 Q42.1 33.8 42.3 30.8 ZM50.5 16.4 L42.1 16.4 Q41 11.3 37.55 8.8 Q34.1 6.3 28.7 6.3 Q24.5 6.3 21.4 7.7 Q18.3 9.1 16.3 11.45 Q14.3 13.8 13.4 16.85 Q12.5 19.9 12.6 23.3 L51.3 23.3 Q51.5 28 50.45 33.2 Q49.4 38.4 46.65 42.8 Q43.9 47.2 39.35 50.05 Q34.8 52.9 27.9 52.9 Q22.6 52.9 18.15 50.9 Q13.7 48.9 10.45 45.3 Q7.2 41.7 5.4 36.8 Q3.6 31.9 3.6 26 Q3.8 20.1 5.35 15.1 Q6.9 10.1 10 6.5 Q13.1 2.9 17.65 0.9 Q22.2 -1.1 28.4 -1.1 Q37.2 -1.1 43 3.3 Q48.8 7.7 50.5 16.4 Z"
        /><glyph unicode="b" horiz-adv-x="59.3" d="M6.7 71.4 L6.7 0 L15.2 0 L15.2 6.9 L15.4 6.9 Q16.8 4.6 18.85 3.05 Q20.9 1.5 23.2 0.6 Q25.5 -0.3 27.85 -0.7 Q30.2 -1.1 32.1 -1.1 Q38 -1.1 42.45 1 Q46.9 3.1 49.85 6.75 Q52.8 10.4 54.25 15.3 Q55.7 20.2 55.7 25.7 Q55.7 31.2 54.2 36.1 Q52.7 41 49.75 44.75 Q46.8 48.5 42.35 50.7 Q37.9 52.9 31.9 52.9 Q26.5 52.9 22 50.95 Q17.5 49 15.4 44.7 L15.2 44.7 L15.2 71.4 ZM46.7 26.3 Q46.7 22.5 45.9 18.9 Q45.1 15.3 43.3 12.5 Q41.5 9.7 38.55 8 Q35.6 6.3 31.2 6.3 Q26.8 6.3 23.7 7.95 Q20.6 9.6 18.65 12.3 Q16.7 15 15.8 18.55 Q14.9 22.1 14.9 25.9 Q14.9 29.5 15.75 33 Q16.6 36.5 18.5 39.25 Q20.4 42 23.4 43.7 Q26.4 45.4 30.7 45.4 Q34.8 45.4 37.85 43.8 Q40.9 42.2 42.85 39.5 Q44.8 36.8 45.75 33.35 Q46.7 29.9 46.7 26.3 Z"
        /><glyph unicode="m" horiz-adv-x="85.3" d="M6.4 51.7 L6.4 0 L14.9 0 L14.9 32.2 Q14.9 33.7 15.65 35.95 Q16.4 38.2 18.05 40.3 Q19.7 42.4 22.35 43.9 Q25 45.4 28.7 45.4 Q31.6 45.4 33.45 44.55 Q35.3 43.7 36.4 42.15 Q37.5 40.6 37.95 38.5 Q38.4 36.4 38.4 33.9 L38.4 0 L46.9 0 L46.9 32.2 Q46.9 38.2 50.5 41.8 Q54.1 45.4 60.4 45.4 Q63.5 45.4 65.45 44.5 Q67.4 43.6 68.5 42.05 Q69.6 40.5 70 38.4 Q70.4 36.3 70.4 33.9 L70.4 0 L78.9 0 L78.9 37.9 Q78.9 41.9 77.65 44.75 Q76.4 47.6 74.15 49.4 Q71.9 51.2 68.75 52.05 Q65.6 52.9 61.7 52.9 Q56.6 52.9 52.35 50.6 Q48.1 48.3 45.5 44.1 Q43.9 48.9 40 50.9 Q36.1 52.9 31.3 52.9 Q20.4 52.9 14.6 44.1 L14.4 44.1 L14.4 51.7 Z"
        /><glyph unicode="u" horiz-adv-x="55.6" d="M49.2 0 L49.2 51.7 L40.7 51.7 L40.7 22.5 Q40.7 19 39.75 16.05 Q38.8 13.1 36.9 10.9 Q35 8.7 32.15 7.5 Q29.3 6.3 25.4 6.3 Q20.5 6.3 17.7 9.1 Q14.9 11.9 14.9 16.7 L14.9 51.7 L6.4 51.7 L6.4 17.7 Q6.4 13.5 7.25 10.05 Q8.1 6.6 10.2 4.1 Q12.3 1.6 15.7 0.25 Q19.1 -1.1 24.2 -1.1 Q29.9 -1.1 34.1 1.15 Q38.3 3.4 41 8.2 L41.2 8.2 L41.2 0 Z"
        /><glyph unicode="N" horiz-adv-x="72.2" d="M7.7 71.4 L7.7 0 L16.7 0 L16.7 57.3 L16.9 57.3 L54.2 0 L64.6 0 L64.6 71.4 L55.6 71.4 L55.6 13.5 L55.4 13.5 L17.8 71.4 Z"
        /><glyph unicode="8" horiz-adv-x="55.6" d="M15.5 52.5 Q15.5 55.2 16.5 57.2 Q17.5 59.2 19.15 60.6 Q20.8 62 23.1 62.7 Q25.4 63.4 27.9 63.4 Q33.1 63.4 36.45 60.65 Q39.8 57.9 39.8 52.5 Q39.8 47.1 36.5 44.1 Q33.2 41.1 28.1 41.1 Q25.5 41.1 23.2 41.8 Q20.9 42.5 19.2 43.9 Q17.5 45.3 16.5 47.45 Q15.5 49.6 15.5 52.5 ZM6.5 52.8 Q6.5 48 9.2 43.95 Q11.9 39.9 16.4 38.1 Q10.4 36 7.2 31.35 Q4 26.7 4 20.4 Q4 15 5.85 10.95 Q7.7 6.9 10.95 4.2 Q14.2 1.5 18.6 0.2 Q23 -1.1 28.1 -1.1 Q33 -1.1 37.3 0.3 Q41.6 1.7 44.75 4.45 Q47.9 7.2 49.75 11.2 Q51.6 15.2 51.6 20.4 Q51.6 27 48.5 31.55 Q45.4 36.1 39 38.1 Q43.5 40.1 46.15 44.05 Q48.8 48 48.8 52.8 Q48.8 56.2 47.6 59.45 Q46.4 62.7 43.85 65.25 Q41.3 67.8 37.2 69.35 Q33.1 70.9 27.3 70.9 Q23.2 70.9 19.45 69.7 Q15.7 68.5 12.8 66.2 Q9.9 63.9 8.2 60.55 Q6.5 57.2 6.5 52.8 ZM13 20 Q13 23.1 14.15 25.6 Q15.3 28.1 17.35 29.9 Q19.4 31.7 22.15 32.65 Q24.9 33.6 28 33.6 Q31 33.6 33.65 32.55 Q36.3 31.5 38.3 29.7 Q40.3 27.9 41.45 25.45 Q42.6 23 42.6 20.1 Q42.6 17.1 41.55 14.6 Q40.5 12.1 38.55 10.25 Q36.6 8.4 33.95 7.35 Q31.3 6.3 28.1 6.3 Q21.5 6.3 17.25 9.95 Q13 13.6 13 20 Z"
        /><glyph unicode="i" horiz-adv-x="22.2" d="M15.4 61 L15.4 71.4 L6.9 71.4 L6.9 61 ZM6.9 51.7 L6.9 0 L15.4 0 L15.4 51.7 Z"
        /><glyph unicode="n" horiz-adv-x="55.6" d="M6.4 51.7 L6.4 0 L14.9 0 L14.9 29.2 Q14.9 32.7 15.85 35.65 Q16.8 38.6 18.7 40.8 Q20.6 43 23.45 44.2 Q26.3 45.4 30.2 45.4 Q35.1 45.4 37.9 42.6 Q40.7 39.8 40.7 35 L40.7 0 L49.2 0 L49.2 34 Q49.2 38.2 48.35 41.65 Q47.5 45.1 45.4 47.6 Q43.3 50.1 39.9 51.5 Q36.5 52.9 31.4 52.9 Q19.9 52.9 14.6 43.5 L14.4 43.5 L14.4 51.7 Z"
        /><glyph unicode="P" horiz-adv-x="64.8" d="M17.3 37.2 L17.3 63.4 L35.9 63.4 Q44 63.4 47.75 60.05 Q51.5 56.7 51.5 50.3 Q51.5 43.9 47.75 40.5 Q44 37.1 35.9 37.2 ZM7.8 71.4 L7.8 0 L17.3 0 L17.3 29.2 L39.1 29.2 Q49.9 29.1 55.45 34.7 Q61 40.3 61 50.3 Q61 60.3 55.45 65.85 Q49.9 71.4 39.1 71.4 Z"
        /><glyph unicode="g" horiz-adv-x="57.4" d="M51 4.4 L51 51.7 L43 51.7 L43 44.3 L42.9 44.3 Q40.6 48.6 36.5 50.75 Q32.4 52.9 27.5 52.9 Q20.8 52.9 16.2 50.35 Q11.6 47.8 8.8 43.85 Q6 39.9 4.8 35.05 Q3.6 30.2 3.6 25.6 Q3.6 20.3 5.05 15.55 Q6.5 10.8 9.4 7.25 Q12.3 3.7 16.6 1.6 Q20.9 -0.5 26.7 -0.5 Q31.7 -0.5 36.15 1.75 Q40.6 4 42.8 8.8 L43 8.8 L43 5.4 Q43 1.1 42.15 -2.5 Q41.3 -6.1 39.4 -8.65 Q37.5 -11.2 34.6 -12.65 Q31.7 -14.1 27.5 -14.1 Q25.4 -14.1 23.1 -13.65 Q20.8 -13.2 18.85 -12.2 Q16.9 -11.2 15.55 -9.6 Q14.2 -8 14.1 -5.7 L5.6 -5.7 Q5.8 -9.9 7.8 -12.8 Q9.8 -15.7 12.85 -17.5 Q15.9 -19.3 19.65 -20.1 Q23.4 -20.9 27 -20.9 Q39.4 -20.9 45.2 -14.6 Q51 -8.3 51 4.4 ZM27.2 6.9 Q23 6.9 20.2 8.65 Q17.4 10.4 15.7 13.25 Q14 16.1 13.3 19.6 Q12.6 23.1 12.6 26.6 Q12.6 30.3 13.45 33.7 Q14.3 37.1 16.15 39.7 Q18 42.3 20.9 43.85 Q23.8 45.4 27.9 45.4 Q31.9 45.4 34.7 43.8 Q37.5 42.2 39.25 39.55 Q41 36.9 41.8 33.6 Q42.6 30.3 42.6 26.9 Q42.6 23.3 41.75 19.7 Q40.9 16.1 39.1 13.25 Q37.3 10.4 34.35 8.65 Q31.4 6.9 27.2 6.9 Z"
        /><glyph unicode="-" horiz-adv-x="38.9" d="M5 31.8 L5 23.8 L33.9 23.8 L33.9 31.8 Z"
        /><glyph unicode="l" horiz-adv-x="22.2" d="M6.9 71.4 L6.9 0 L15.4 0 L15.4 71.4 Z"
        /><glyph unicode="v" horiz-adv-x="50.0" d="M29.7 0 L48.6 51.7 L39.7 51.7 L25.6 8.6 L25.4 8.6 L10.9 51.7 L1.4 51.7 L20.6 0 Z"
        /><glyph unicode="M" horiz-adv-x="87.1" d="M8 71.4 L8 0 L17 0 L17 59.4 L17.2 59.4 L39.5 0 L47.6 0 L69.9 59.4 L70.1 59.4 L70.1 0 L79.1 0 L79.1 71.4 L66.1 71.4 L43.5 11.4 L21 71.4 Z"
        /><glyph unicode="A" horiz-adv-x="64.8" d="M20.1 29.5 L32.2 62.8 L32.4 62.8 L44.3 29.5 ZM27.2 71.4 L-0.6 0 L9.1 0 L17.1 21.5 L47.3 21.5 L55.1 0 L65.6 0 L37.7 71.4 Z"
        /><glyph unicode="G" horiz-adv-x="75.9" d="M61.2 8.9 L63.7 0 L69.7 0 L69.7 37.6 L38.4 37.6 L38.4 29.6 L61.2 29.6 Q61.4 24.7 59.9 20.45 Q58.4 16.2 55.45 13.05 Q52.5 9.9 48.2 8.1 Q43.9 6.3 38.3 6.3 Q32.3 6.3 27.75 8.65 Q23.2 11 20.1 14.95 Q17 18.9 15.4 24.05 Q13.8 29.2 13.8 34.8 Q13.8 40.5 15.2 45.95 Q16.6 51.4 19.55 55.65 Q22.5 59.9 27.15 62.5 Q31.8 65.1 38.3 65.1 Q42.3 65.1 45.85 64.15 Q49.4 63.2 52.2 61.3 Q55 59.4 56.9 56.45 Q58.8 53.5 59.5 49.4 L69 49.4 Q68 55.7 65.25 60.15 Q62.5 64.6 58.45 67.5 Q54.4 70.4 49.25 71.75 Q44.1 73.1 38.3 73.1 Q29.8 73.1 23.45 69.95 Q17.1 66.8 12.85 61.5 Q8.6 56.2 6.45 49.15 Q4.3 42.1 4.3 34.3 Q4.3 27.3 6.6 20.8 Q8.9 14.3 13.3 9.3 Q17.7 4.3 24 1.35 Q30.3 -1.6 38.3 -1.6 Q44.6 -1.6 50.8 0.85 Q57 3.3 61.2 8.9 Z"
        /><glyph unicode="y" horiz-adv-x="50.0" d="M26.7 -6.9 Q25.2 -10.7 23.75 -13.3 Q22.3 -15.9 20.55 -17.55 Q18.8 -19.2 16.65 -19.95 Q14.5 -20.7 11.7 -20.7 Q10.2 -20.7 8.7 -20.5 Q7.2 -20.3 5.8 -19.8 L5.8 -12 Q6.9 -12.5 8.35 -12.85 Q9.8 -13.2 10.8 -13.2 Q13.4 -13.2 15.15 -11.95 Q16.9 -10.7 17.8 -8.4 L21.3 0.3 L0.8 51.7 L10.4 51.7 L25.5 9.4 L25.7 9.4 L40.2 51.7 L49.2 51.7 Z"
      /></font
    ></defs
    ><g style="fill:white; stroke:white;"
    ><rect x="0" y="0" width="560" style="clip-path:url(#clipPath1); stroke:none;" height="420"
    /></g
    ><g style="fill:white; text-rendering:optimizeSpeed; color-rendering:optimizeSpeed; image-rendering:optimizeSpeed; shape-rendering:crispEdges; stroke:white; color-interpolation:sRGB;"
    ><rect x="0" width="560" height="420" y="0" style="stroke:none;"
      /><path style="stroke:none;" d="M73 374 L507 374 L507 31.5 L73 31.5 Z"
    /></g
    ><g style="stroke-linecap:butt; fill-opacity:0.4; fill:rgb(38,38,38); text-rendering:geometricPrecision; image-rendering:optimizeQuality; color-rendering:optimizeQuality; stroke-linejoin:round; stroke:rgb(38,38,38); color-interpolation:linearRGB; stroke-width:0.5; stroke-opacity:0.4;"
    ><line y2="31.5" style="fill:none;" x1="73" x2="73" y1="374"
      /><line y2="31.5" style="fill:none;" x1="135" x2="135" y1="374"
      /><line y2="31.5" style="fill:none;" x1="197" x2="197" y1="374"
      /><line y2="31.5" style="fill:none;" x1="259" x2="259" y1="374"
      /><line y2="31.5" style="fill:none;" x1="321" x2="321" y1="374"
      /><line y2="31.5" style="fill:none;" x1="383" x2="383" y1="374"
      /><line y2="31.5" style="fill:none;" x1="445" x2="445" y1="374"
      /><line y2="31.5" style="fill:none;" x1="507" x2="507" y1="374"
      /><line y2="374" style="fill:none;" x1="507" x2="73" y1="374"
      /><line y2="335.9445" style="fill:none;" x1="507" x2="73" y1="335.9445"
      /><line y2="297.8889" style="fill:none;" x1="507" x2="73" y1="297.8889"
      /><line y2="259.8333" style="fill:none;" x1="507" x2="73" y1="259.8333"
      /><line y2="221.7778" style="fill:none;" x1="507" x2="73" y1="221.7778"
      /><line y2="183.7222" style="fill:none;" x1="507" x2="73" y1="183.7222"
      /><line y2="145.6667" style="fill:none;" x1="507" x2="73" y1="145.6667"
      /><line y2="107.6111" style="fill:none;" x1="507" x2="73" y1="107.6111"
      /><line y2="69.5556" style="fill:none;" x1="507" x2="73" y1="69.5556"
      /><line y2="31.5" style="fill:none;" x1="507" x2="73" y1="31.5"
      /><line x1="73" x2="507" y1="374" style="stroke-linecap:square; fill-opacity:1; fill:none; stroke-opacity:1;" y2="374"
      /><line x1="73" x2="507" y1="31.5" style="stroke-linecap:square; fill-opacity:1; fill:none; stroke-opacity:1;" y2="31.5"
      /><line x1="73" x2="73" y1="374" style="stroke-linecap:square; fill-opacity:1; fill:none; stroke-opacity:1;" y2="369.66"
      /><line x1="135" x2="135" y1="374" style="stroke-linecap:square; fill-opacity:1; fill:none; stroke-opacity:1;" y2="369.66"
      /><line x1="197" x2="197" y1="374" style="stroke-linecap:square; fill-opacity:1; fill:none; stroke-opacity:1;" y2="369.66"
      /><line x1="259" x2="259" y1="374" style="stroke-linecap:square; fill-opacity:1; fill:none; stroke-opacity:1;" y2="369.66"
      /><line x1="321" x2="321" y1="374" style="stroke-linecap:square; fill-opacity:1; fill:none; stroke-opacity:1;" y2="369.66"
      /><line x1="383" x2="383" y1="374" style="stroke-linecap:square; fill-opacity:1; fill:none; stroke-opacity:1;" y2="369.66"
      /><line x1="445" x2="445" y1="374" style="stroke-linecap:square; fill-opacity:1; fill:none; stroke-opacity:1;" y2="369.66"
      /><line x1="507" x2="507" y1="374" style="stroke-linecap:square; fill-opacity:1; fill:none; stroke-opacity:1;" y2="369.66"
      /><line x1="73" x2="73" y1="31.5" style="stroke-linecap:square; fill-opacity:1; fill:none; stroke-opacity:1;" y2="35.84"
      /><line x1="135" x2="135" y1="31.5" style="stroke-linecap:square; fill-opacity:1; fill:none; stroke-opacity:1;" y2="35.84"
      /><line x1="197" x2="197" y1="31.5" style="stroke-linecap:square; fill-opacity:1; fill:none; stroke-opacity:1;" y2="35.84"
      /><line x1="259" x2="259" y1="31.5" style="stroke-linecap:square; fill-opacity:1; fill:none; stroke-opacity:1;" y2="35.84"
      /><line x1="321" x2="321" y1="31.5" style="stroke-linecap:square; fill-opacity:1; fill:none; stroke-opacity:1;" y2="35.84"
      /><line x1="383" x2="383" y1="31.5" style="stroke-linecap:square; fill-opacity:1; fill:none; stroke-opacity:1;" y2="35.84"
      /><line x1="445" x2="445" y1="31.5" style="stroke-linecap:square; fill-opacity:1; fill:none; stroke-opacity:1;" y2="35.84"
      /><line x1="507" x2="507" y1="31.5" style="stroke-linecap:square; fill-opacity:1; fill:none; stroke-opacity:1;" y2="35.84"
    /></g
    ><g transform="translate(73,378)" style="font-size:10px; fill:rgb(38,38,38); text-rendering:geometricPrecision; image-rendering:optimizeQuality; color-rendering:optimizeQuality; font-family:'Helvetica Neue'; stroke:rgb(38,38,38); color-interpolation:linearRGB;"
    ><text x="-3" xml:space="preserve" y="10" style="stroke:none;"
      >0</text
    ></g
    ><g transform="translate(135,378)" style="font-size:10px; fill:rgb(38,38,38); text-rendering:geometricPrecision; image-rendering:optimizeQuality; color-rendering:optimizeQuality; font-family:'Helvetica Neue'; stroke:rgb(38,38,38); color-interpolation:linearRGB;"
    ><text x="-6" xml:space="preserve" y="10" style="stroke:none;"
      >10</text
    ></g
    ><g transform="translate(197,378)" style="font-size:10px; fill:rgb(38,38,38); text-rendering:geometricPrecision; image-rendering:optimizeQuality; color-rendering:optimizeQuality; font-family:'Helvetica Neue'; stroke:rgb(38,38,38); color-interpolation:linearRGB;"
    ><text x="-6" xml:space="preserve" y="10" style="stroke:none;"
      >20</text
    ></g
    ><g transform="translate(259,378)" style="font-size:10px; fill:rgb(38,38,38); text-rendering:geometricPrecision; image-rendering:optimizeQuality; color-rendering:optimizeQuality; font-family:'Helvetica Neue'; stroke:rgb(38,38,38); color-interpolation:linearRGB;"
    ><text x="-6" xml:space="preserve" y="10" style="stroke:none;"
      >30</text
    ></g
    ><g transform="translate(321,378)" style="font-size:10px; fill:rgb(38,38,38); text-rendering:geometricPrecision; image-rendering:optimizeQuality; color-rendering:optimizeQuality; font-family:'Helvetica Neue'; stroke:rgb(38,38,38); color-interpolation:linearRGB;"
    ><text x="-6" xml:space="preserve" y="10" style="stroke:none;"
      >40</text
    ></g
    ><g transform="translate(383,378)" style="font-size:10px; fill:rgb(38,38,38); text-rendering:geometricPrecision; image-rendering:optimizeQuality; color-rendering:optimizeQuality; font-family:'Helvetica Neue'; stroke:rgb(38,38,38); color-interpolation:linearRGB;"
    ><text x="-6" xml:space="preserve" y="10" style="stroke:none;"
      >50</text
    ></g
    ><g transform="translate(445,378)" style="font-size:10px; fill:rgb(38,38,38); text-rendering:geometricPrecision; image-rendering:optimizeQuality; color-rendering:optimizeQuality; font-family:'Helvetica Neue'; stroke:rgb(38,38,38); color-interpolation:linearRGB;"
    ><text x="-6" xml:space="preserve" y="10" style="stroke:none;"
      >60</text
    ></g
    ><g transform="translate(507,378)" style="font-size:10px; fill:rgb(38,38,38); text-rendering:geometricPrecision; image-rendering:optimizeQuality; color-rendering:optimizeQuality; font-family:'Helvetica Neue'; stroke:rgb(38,38,38); color-interpolation:linearRGB;"
    ><text x="-6" xml:space="preserve" y="10" style="stroke:none;"
      >70</text
    ></g
    ><g transform="translate(290.0002,391.5)" style="font-size:22px; fill:rgb(38,38,38); text-rendering:geometricPrecision; image-rendering:optimizeQuality; color-rendering:optimizeQuality; font-family:'Helvetica Neue'; stroke:rgb(38,38,38); color-interpolation:linearRGB;"
    ><text x="-159.5" xml:space="preserve" y="21" style="stroke:none;"
      >Number of processes or threads</text
    ></g
    ><g style="fill:rgb(38,38,38); text-rendering:geometricPrecision; image-rendering:optimizeQuality; color-rendering:optimizeQuality; stroke-linejoin:round; stroke:rgb(38,38,38); color-interpolation:linearRGB; stroke-width:0.5;"
    ><line y2="31.5" style="fill:none;" x1="73" x2="73" y1="374"
      /><line y2="31.5" style="fill:none;" x1="507" x2="507" y1="374"
      /><line y2="374" style="fill:none;" x1="73" x2="77.34" y1="374"
      /><line y2="335.9445" style="fill:none;" x1="73" x2="77.34" y1="335.9445"
      /><line y2="297.8889" style="fill:none;" x1="73" x2="77.34" y1="297.8889"
      /><line y2="259.8333" style="fill:none;" x1="73" x2="77.34" y1="259.8333"
      /><line y2="221.7778" style="fill:none;" x1="73" x2="77.34" y1="221.7778"
      /><line y2="183.7222" style="fill:none;" x1="73" x2="77.34" y1="183.7222"
      /><line y2="145.6667" style="fill:none;" x1="73" x2="77.34" y1="145.6667"
      /><line y2="107.6111" style="fill:none;" x1="73" x2="77.34" y1="107.6111"
      /><line y2="69.5556" style="fill:none;" x1="73" x2="77.34" y1="69.5556"
      /><line y2="31.5" style="fill:none;" x1="73" x2="77.34" y1="31.5"
      /><line y2="374" style="fill:none;" x1="507" x2="502.66" y1="374"
      /><line y2="335.9445" style="fill:none;" x1="507" x2="502.66" y1="335.9445"
      /><line y2="297.8889" style="fill:none;" x1="507" x2="502.66" y1="297.8889"
      /><line y2="259.8333" style="fill:none;" x1="507" x2="502.66" y1="259.8333"
      /><line y2="221.7778" style="fill:none;" x1="507" x2="502.66" y1="221.7778"
      /><line y2="183.7222" style="fill:none;" x1="507" x2="502.66" y1="183.7222"
      /><line y2="145.6667" style="fill:none;" x1="507" x2="502.66" y1="145.6667"
      /><line y2="107.6111" style="fill:none;" x1="507" x2="502.66" y1="107.6111"
      /><line y2="69.5556" style="fill:none;" x1="507" x2="502.66" y1="69.5556"
      /><line y2="31.5" style="fill:none;" x1="507" x2="502.66" y1="31.5"
    /></g
    ><g transform="translate(69,374)" style="font-size:10px; fill:rgb(38,38,38); text-rendering:geometricPrecision; image-rendering:optimizeQuality; color-rendering:optimizeQuality; font-family:'Helvetica Neue'; stroke:rgb(38,38,38); color-interpolation:linearRGB;"
    ><text x="-6" xml:space="preserve" y="3.5" style="stroke:none;"
      >0</text
    ></g
    ><g transform="translate(69,335.9445)" style="font-size:10px; fill:rgb(38,38,38); text-rendering:geometricPrecision; image-rendering:optimizeQuality; color-rendering:optimizeQuality; font-family:'Helvetica Neue'; stroke:rgb(38,38,38); color-interpolation:linearRGB;"
    ><text x="-6" xml:space="preserve" y="3.5" style="stroke:none;"
      >2</text
    ></g
    ><g transform="translate(69,297.8889)" style="font-size:10px; fill:rgb(38,38,38); text-rendering:geometricPrecision; image-rendering:optimizeQuality; color-rendering:optimizeQuality; font-family:'Helvetica Neue'; stroke:rgb(38,38,38); color-interpolation:linearRGB;"
    ><text x="-6" xml:space="preserve" y="3.5" style="stroke:none;"
      >4</text
    ></g
    ><g transform="translate(69,259.8333)" style="font-size:10px; fill:rgb(38,38,38); text-rendering:geometricPrecision; image-rendering:optimizeQuality; color-rendering:optimizeQuality; font-family:'Helvetica Neue'; stroke:rgb(38,38,38); color-interpolation:linearRGB;"
    ><text x="-6" xml:space="preserve" y="3.5" style="stroke:none;"
      >6</text
    ></g
    ><g transform="translate(69,221.7778)" style="font-size:10px; fill:rgb(38,38,38); text-rendering:geometricPrecision; image-rendering:optimizeQuality; color-rendering:optimizeQuality; font-family:'Helvetica Neue'; stroke:rgb(38,38,38); color-interpolation:linearRGB;"
    ><text x="-6" xml:space="preserve" y="3.5" style="stroke:none;"
      >8</text
    ></g
    ><g transform="translate(69,183.7222)" style="font-size:10px; fill:rgb(38,38,38); text-rendering:geometricPrecision; image-rendering:optimizeQuality; color-rendering:optimizeQuality; font-family:'Helvetica Neue'; stroke:rgb(38,38,38); color-interpolation:linearRGB;"
    ><text x="-12" xml:space="preserve" y="3.5" style="stroke:none;"
      >10</text
    ></g
    ><g transform="translate(69,145.6667)" style="font-size:10px; fill:rgb(38,38,38); text-rendering:geometricPrecision; image-rendering:optimizeQuality; color-rendering:optimizeQuality; font-family:'Helvetica Neue'; stroke:rgb(38,38,38); color-interpolation:linearRGB;"
    ><text x="-12" xml:space="preserve" y="3.5" style="stroke:none;"
      >12</text
    ></g
    ><g transform="translate(69,107.6111)" style="font-size:10px; fill:rgb(38,38,38); text-rendering:geometricPrecision; image-rendering:optimizeQuality; color-rendering:optimizeQuality; font-family:'Helvetica Neue'; stroke:rgb(38,38,38); color-interpolation:linearRGB;"
    ><text x="-12" xml:space="preserve" y="3.5" style="stroke:none;"
      >14</text
    ></g
    ><g transform="translate(69,69.5556)" style="font-size:10px; fill:rgb(38,38,38); text-rendering:geometricPrecision; image-rendering:optimizeQuality; color-rendering:optimizeQuality; font-family:'Helvetica Neue'; stroke:rgb(38,38,38); color-interpolation:linearRGB;"
    ><text x="-12" xml:space="preserve" y="3.5" style="stroke:none;"
      >16</text
    ></g
    ><g transform="translate(69,31.5)" style="font-size:10px; fill:rgb(38,38,38); text-rendering:geometricPrecision; image-rendering:optimizeQuality; color-rendering:optimizeQuality; font-family:'Helvetica Neue'; stroke:rgb(38,38,38); color-interpolation:linearRGB;"
    ><text x="-12" xml:space="preserve" y="3.5" style="stroke:none;"
      >18</text
    ></g
    ><g transform="translate(54.5,202.7498) rotate(-90)" style="font-size:22px; fill:rgb(38,38,38); text-rendering:geometricPrecision; image-rendering:optimizeQuality; color-rendering:optimizeQuality; font-family:'Helvetica Neue'; stroke:rgb(38,38,38); color-interpolation:linearRGB;"
    ><text x="-132.5" xml:space="preserve" y="-5" style="stroke:none;"
      >Percent time in distribution</text
    ></g
    ><g transform="translate(290.0003,29)" style="font-size:20px; text-rendering:geometricPrecision; color-rendering:optimizeQuality; image-rendering:optimizeQuality; font-family:'Helvetica Neue'; color-interpolation:linearRGB;"
    ><text x="-264.5" xml:space="preserve" y="-5" style="stroke:none;"
      >GAMG server solve - percent solver time in distribution gcc</text
    ></g
    ><g style="stroke-linecap:butt; fill:rgb(0,114,189); text-rendering:geometricPrecision; color-rendering:optimizeQuality; image-rendering:optimizeQuality; stroke-linejoin:round; stroke:rgb(0,114,189); color-interpolation:linearRGB;"
    ><path d="M79.2 374 L85.4 312.4772 L91.6 306.3344 L97.8 298.5917 L104 291.9587 L110.2 285.1358 L116.4 277.8072 L122.6 271.1372 L128.8 265.8374 L135 259.2716 L141.2 254.6461 L147.4 247.946 L153.6 242.4847 L159.8 237.5223 L166 232.457 L172.2 228.1406 L178.4 219.7623 L184.6 214.8728 L190.8 210.926 L197 205.9903 L203.2 202.7318 L209.4 197.9682 L215.6 193.6315 L221.8 190.7211 L228 192.7693 L234.2 183.9941 L240.4 181.8379 L246.6 181.7823 L252.8 176.7715 L259 177.7744 L265.2 175.7237 L271.4 167.9132 L277.6 165.515 L283.8 165.9363 L290 161.576 L296.2 157.4451 L302.4 155.7043 L308.6 152.583 L314.8 152.4111 L321 154.0194 L327.2 147.6944 L333.4 145.4717 L339.6 143.7169 L345.8 141.1007 L352 138.8321 L358.2 137.4507 L364.4 133.7955 L370.6 134.3772 L376.8 131.2282 L383 127.8893 L389.2 123.7104 L395.4 123.3038 L401.6 121.2454 L407.8 115.4461 L414 122.1899 L420.2 110.5504 L426.4 116.3692 L432.6 108.7324 L438.8 109.7743 L445 96.6403 L451.2 90.7199 L457.4 75.6641 L463.6 64.0532 L469.8 46.4287" style="fill:none; fill-rule:evenodd;"
      /><path d="M79.2 374 L85.4 321.9644 L91.6 319.2732 L97.8 319.2793 L104 318.7199 L110.2 319.4446 L116.4 320.4973 L122.6 319.3225 L128.8 318.7685 L135 318.8585 L141.2 319.7352 L147.4 318.9186 L153.6 318.9074 L159.8 320.0605 L166 320.4044 L172.2 320.413 L178.4 320.4333 L184.6 320.2599 L190.8 320.5912 L197 319.9414 L203.2 321.1142 L209.4 320.7471 L215.6 320.6342 L221.8 320.4286 L228 320.6554 L234.2 320.3728 L240.4 320.9797 L246.6 320.293 L252.8 320.709 L259 320.2083 L265.2 319.6362 L271.4 320.3841 L277.6 320.7764 L283.8 320.5341 L290 321.3078 L296.2 320.4122 L302.4 321.1723 L308.6 320.752 L314.8 321.0485 L321 320.8747 L327.2 318.1307 L333.4 320.4885 L339.6 321.122 L345.8 320.8394 L352 320.5215 L358.2 320.1064 L364.4 320.1673 L370.6 320.098 L376.8 319.8617 L383 319.5367 L389.2 319.643 L395.4 319.2877 L401.6 319.3269 L407.8 319.1779 L414 321.554 L420.2 319.9707 L426.4 319.7318 L432.6 319.889 L438.8 320.0509 L445 319.6269 L451.2 319.8936 L457.4 319.6042 L463.6 319.6019 L469.8 319.5092" style="fill:none; fill-rule:evenodd; stroke:rgb(217,83,25);"
    /></g
    ><g style="fill:white; text-rendering:optimizeSpeed; color-rendering:optimizeSpeed; image-rendering:optimizeSpeed; shape-rendering:crispEdges; stroke:white; color-interpolation:sRGB;"
    ><path style="stroke:none;" d="M260 66 L260 39.5 L81 39.5 L81 66 Z"
    /></g
    ><g transform="translate(118,47)" style="font-size:9px; text-rendering:geometricPrecision; color-rendering:optimizeQuality; image-rendering:optimizeQuality; font-family:'Helvetica Neue'; color-interpolation:linearRGB;"
    ><text x="0" xml:space="preserve" y="3.5" style="stroke:none;"
      >server</text
    ></g
    ><g style="stroke-linecap:butt; fill:rgb(0,114,189); text-rendering:geometricPrecision; color-rendering:optimizeQuality; image-rendering:optimizeQuality; stroke-linejoin:round; stroke:rgb(0,114,189); color-interpolation:linearRGB;"
    ><line y2="47" style="fill:none;" x1="85" x2="115" y1="47"
    /></g
    ><g transform="translate(118,58.5)" style="font-size:9px; text-rendering:geometricPrecision; color-rendering:optimizeQuality; image-rendering:optimizeQuality; font-family:'Helvetica Neue'; color-interpolation:linearRGB;"
    ><text x="0" xml:space="preserve" y="3.5" style="stroke:none;"
      >server shared memory distribution</text
    ></g
    ><g style="stroke-linecap:butt; fill:rgb(217,83,25); text-rendering:geometricPrecision; color-rendering:optimizeQuality; image-rendering:optimizeQuality; stroke-linejoin:round; stroke:rgb(217,83,25); color-interpolation:linearRGB;"
    ><line y2="58.5" style="fill:none;" x1="85" x2="115" y1="58.5"
    /></g
    ><g style="stroke-linecap:butt; fill:rgb(38,38,38); text-rendering:geometricPrecision; color-rendering:optimizeQuality; image-rendering:optimizeQuality; stroke:rgb(38,38,38); color-interpolation:linearRGB; stroke-width:0.5;"
    ><path d="M81 66 L81 39.5 L260 39.5 L260 66 Z" style="fill:none; fill-rule:evenodd;"
    /></g
  ></g
></svg
>
